<?xml version="1.0" encoding="utf-8"?>
<!-- Generator: Adobe Illustrator 22.1.0, SVG Export Plug-In . SVG Version: 6.00 Build 0)  -->
<svg version="1.1" id="Layer_1" xmlns="http://www.w3.org/2000/svg" xmlns:xlink="http://www.w3.org/1999/xlink" x="0px" y="0px"
	 viewBox="0 0 1001 1001" style="enable-background:new 0 0 1001 1001;" xml:space="preserve">
<style type="text/css">
	.st0{fill:#FC6D26;}
	.st1{fill:#E24329;}
	.st2{fill:#FCA326;}
</style>
<title>Git Lab</title>
<g id="g44">
	<path id="path46" class="st0" d="M999.2,566.7l-56.1-172.3l-111-341.8c-3.4-10-14.2-15.5-24.3-12.1c-5.7,1.9-10.2,6.4-12.1,12.1
		l-111,341.6H316.2l-111-341.6c-3.3-10-14.2-15.5-24.2-12.1c-5.7,1.9-10.2,6.4-12.1,12.1L58.1,394.2L2,566.7
		c-5.1,15.7,0.5,32.9,13.8,42.7l484.7,352.2l484.6-352.2C998.6,599.7,1004.3,582.5,999.2,566.7"/>
</g>
<g id="g48">
	<path id="path50" class="st1" d="M500.6,961.3L500.6,961.3l184.3-567.2H316.3L500.6,961.3z"/>
</g>
<g id="g56">
	<path id="path58" class="st0" d="M500.6,961.3L316.2,394.1h-258L500.6,961.3z"/>
</g>
<g id="g64">
	<path id="path66" class="st2" d="M58,394.3L58,394.3L1.9,566.6c-5.1,15.7,0.5,32.9,13.8,42.7l484.8,352.3L58,394.3z"/>
</g>
<g id="g72">
	<path id="path74" class="st1" d="M58.1,394.3h258.3L205.2,52.7c-3.4-10-14.2-15.5-24.3-12.1c-5.7,1.9-10.2,6.4-12.1,12.1
		L58.1,394.3z"/>
</g>
<g id="g76">
	<path id="path78" class="st0" d="M500.6,961.3l184.3-567.2h258.4L500.6,961.3z"/>
</g>
<g id="g80">
	<path id="path82" class="st2" d="M943.1,394.3L943.1,394.3l56.1,172.3c5.1,15.7-0.4,33-13.8,42.7l-484.8,352l442.4-567H943.1z"/>
</g>
<g id="g84">
	<path id="path86" class="st1" d="M943.2,394.3H684.9l111-341.6c3.3-10,14.2-15.5,24.2-12.1c5.7,1.9,10.2,6.4,12.1,12.1L943.2,394.3
		L943.2,394.3z"/>
</g>
</svg>
